…
    ## The following objects are masked from 'package:base':
    ## 
    ##     intersect, setdiff, setequal, union

``` r
library(nycflights13)
library(ggplot2)
```

``` r
flights
```

    ## # A tibble: 336,776 x 19
    ##     year month   day dep_time sched_dep_time dep_delay arr_time sched_arr_time
    ##    <int> <int> <int>    <int>          <int>     <dbl>    <int>          <int>
    ##  1  2013     1     1      517            515         2      830            819
    ##  2  2013     1     1      533            529         4      850            830
    ##  3  2013     1     1      542            540         2      923            850
    ##  4  2013     1     1      544            545        -1     1004           1022
    ##  5  2013     1     1      554            600        -6      812            837
    ##  6  2013     1     1      554            558        -4      740            728
    ##  7  2013     1     1      555            600        -5      913            854
    ##  8  2013     1     1      557            600        -3      709            723
    ##  9  2013     1     1      557            600        -3      838            846
    ## 10  2013     1     1      558            600        -2      753            745
    ## # … with 336,766 more rows, and 11 more variables: arr_delay <dbl>,
    ## #   carrier <chr>, flight <int>, tailnum <chr>, origin <chr>, dest <chr>,
    ## #   air_time <dbl>, distance <dbl>, hour <dbl>, minute <dbl>, time_hour <dttm>
…
    ## Warning in if (!is.na(val)) {: the condition has length > 1 and only the first
    ## element will be used

``` r
flights$sched_dep_time = convert_mins(flights2$sched_dep_time) 
```

    ## Warning in if (!is.na(val)) {: the condition has length > 1 and only the first
    ## element will be used

``` r
flights 
```

    ## # A tibble: 336,776 x 19
    ##     year month   day dep_time sched_dep_time dep_delay arr_time sched_arr_time
    ##    <int> <int> <int>    <dbl>          <dbl>     <dbl>    <int>          <int>
    ##  1  2013     1     1      317            315         2      830            819
    ##  2  2013     1     1      333            329         4      850            830
    ##  3  2013     1     1      342            340         2      923            850
    ##  4  2013     1     1      344            345        -1     1004           1022
    ##  5  2013     1     1      254            360        -6      812            837
    ##  6  2013     1     1      254            258        -4      740            728
    ##  7  2013     1     1      255            360        -5      913            854
    ##  8  2013     1     1      257            360        -3      709            723
    ##  9  2013     1     1      257            360        -3      838            846
    ## 10  2013     1     1      258            360        -2      753            745
    ## # … with 336,766 more rows, and 11 more variables: arr_delay <dbl>,
    ## #   carrier <chr>, flight <int>, tailnum <chr>, origin <chr>, dest <chr>,
    ## #   air_time <dbl>, distance <dbl>, hour <dbl>, minute <dbl>, time_hour <dttm>
…
